Estimate Percentiles from an Ordered Categorical Variable • perccalc
…
perc_diff(df, categorical, continuous, percentiles = c(90, 10))
#> difference         se 
#> 79.5140766  0.3035694

You can optionally add weights with the weights argument.

perc_diff(df, categorical, continuous, weights = wt, percentiles = c(90, 10))
#> difference         se 
#> 79.9275609  0.3498872

On the other hand, the perc_dist (short for percentile distribution) allows you to estimate the score for every percentile.

perc_dist(df, categorical, continuous) %>%
  head()
#> # A tibble: 6 x 3
#>   percentile estimate std.error
#>        <int>    <dbl>     <dbl>
#> 1          1    0.952    0.0475
#> 2          2    1.91     0.0927
#> 3          3    2.86     0.136 
#> 4          4    3.82     0.177 
#> 5          5    4.78     0.216 
#> # ... with 1 more row
…
