…
Note that the categorical variable has to be an ordered factor (this is a requirement of both functions). For example, `perc_calc` calculates percentile differences using both variables.


```r
perc_diff(df, categorical, continuous, percentiles = c(90, 10))
#> difference         se 
#> 80.0163730  0.3375946
```

You can also use the `weights` argument to specify weights. On the other hand, the `perc_calculator` allows you to estimate the score for every percentile.


```r
perc_calculator(df, categorical, continuous)
#> # A tibble: 100 x 3
#>   percentile     score         se
#>        <int>     <dbl>      <dbl>
#> 1          1 0.9202637 0.05122108
#> 2          2 1.8442792 0.10007389
#> 3          3 2.7719745 0.14660827
#> 4          4 3.7032774 0.19087408
#> 5          5 4.6381158 0.23292121
#> # ... with 95 more rows
```
…
