…
df <-
  tibble(
  continuous = rnorm(100) + 1:100,
  categorical = rep(letters[1:5], each = 20) %>% factor(ordered = TRUE))

Note that the categorical variable has to be an ordered factor (this is a requirement of both functions). For example, perc_calc calculates percentile differences using both variables.

perc_diff(df, categorical, continuous, percentiles = c(90, 10))
#> difference         se 
#> 79.6735994  0.2235257

You can also use the weights argument to specify weights. On the other hand, the perc_calculator allows you to estimate the score for every percentile.

perc_calculator(df, categorical, continuous)
#> # A tibble: 100 x 3
#>   percentile     score         se
#>        <int>     <dbl>      <dbl>
#> 1          1 0.9924821 0.03280493
#> 2          2 1.9847132 0.06411148
#> 3          3 2.9767040 0.09395110
#> 4          4 3.9684654 0.12235524
#> 5          5 4.9600081 0.14935537
#> # ... with 95 more rows
…
