Calculating percentile differences from ordered categorical and continuous variables
…
gss <-
  read_dta(data_link) %>%
  select(rincome, prestg10, wtss) %>%
  rename(
    income = rincome,
    prestige = prestg10,
    wt = wtss
  )

unlink(c(temp_file, data_link)) # deleting both files.

gss

## # A tibble: 2,867 x 3
##    income    prestige  wt               
##    <dbl+lbl> <dbl+lbl> <dbl+lbl>        
##  1 <NA>      60        0.956993511490439
##  2 12        40        0.478496755745219
##  3 <NA>      38        0.956993511490439
##  4 9         35        1.91398702298088 
##  5 2         31        1.43549026723566 
##  6 <NA>      36        0.956993511490439
##  7 <NA>      65        1.43549026723566 
##  8 10        48        0.956993511490439
##  9 11        48        0.956993511490439
## 10 <NA>      35        0.956993511490439
## # ... with 2,857 more rows
…
