Warning message with perccalc package • perccalc
…
For example, take the survey data on smoking habits.

smoking_data <-
  MASS::survey %>% # you will need to install the MASS package
  as_tibble() %>%
  select(Sex, Smoke, Pulse) %>%
  rename(
    gender = Sex,
    smoke = Smoke,
    pulse_rate = Pulse
  )

The final results is this dataset:

## # A tibble: 237 x 3
##    gender smoke pulse_rate
##    <fct>  <fct>      <int>
##  1 Male   Never         35
##  2 Female Never         40
##  3 Female Never         48
##  4 Male   Never         48
##  5 Female Never         50
##  6 Female Regul         50
##  7 Male   Regul         54
##  8 Male   Never         55
##  9 Male   Never         56
## 10 Male   Never         59
## # … with 227 more rows
…
