Calculating percentile differences from ordered categorical and continuous variables • perccalc
…
Let’s prepare the data.

set.seed(213141)
data("GSSvocab")

gss <- 
  as_tibble(GSSvocab) %>% 
  filter(year == '1978') %>% 
  mutate(weight = sample(1:3, size = nrow(.), replace = TRUE, prob = c(0.1, 0.5, 0.4))) %>% 
  select(ageGroup, vocab, weight)

gss

## # A tibble: 1,532 x 3
##    ageGroup vocab weight
##    <fct>    <dbl>  <int>
##  1 50-59       10      2
##  2 60+          6      2
##  3 30-39        4      3
##  4 50-59        9      2
##  5 40-49        6      2
##  6 18-29        6      3
##  7 18-29        4      1
##  8 50-59        7      2
##  9 40-49        8      2
## 10 18-29        3      1
## # … with 1,522 more rows
…
