Case study: percentile distributions in test scores using PISA • perccalc
…
It seems that the 90/50 and 50/10 differences are not symmetrical.

percalc also has a perc_dist function which calculates the distribution of the percentiles, so we can compare more finegrained percentiles rather than differences:

perc_dist(pisa, father_edu, avg_math)
#> # A tibble: 100 x 3
#>    percentile estimate std.error
#>         <int>    <dbl>     <dbl>
#>  1          1    0.853      1.64
#>  2          2    1.74       3.20
#>  3          3    2.65       4.69
#>  4          4    3.60       6.10
#>  5          5    4.57       7.45
#>  6          6    5.57       8.72
#>  7          7    6.59       9.93
#>  8          8    7.64      11.1 
#>  9          9    8.71      12.2 
#> 10         10    9.80      13.2 
#> # … with 90 more rows

Here we get the complete percentile distribution with the test score in mathematics for each percentile. This can be easily scaled to all country/year combinations with our previous code:

cnt_dist <-
  pisa %>%
  nest(data = c(-year, -CNT)) %>%
  mutate(edu_diff = lapply(data, function(x) perc_dist(x, father_edu, avg_math))) %>%
  select(-data) %>% 
  unnest(edu_diff)

cnt_dist
#> # A tibble: 600 x 5
#>     year CNT     percentile estimate std.error
#>    <dbl> <chr>        <int>    <dbl>     <dbl>
#>  1  2006 Estonia          1    0.647     0.388
#>  2  2006 Estonia          2    1.31      0.762
#>  3  2006 Estonia          3    2.00      1.12 
#>  4  2006 Estonia          4    2.71      1.47 
#>  5  2006 Estonia          5    3.43      1.81 
#>  6  2006 Estonia          6    4.17      2.13 
#>  7  2006 Estonia          7    4.93      2.44 
#>  8  2006 Estonia          8    5.70      2.74 
#>  9  2006 Estonia          9    6.48      3.02 
#> 10  2006 Estonia         10    7.28      3.30 
#> # … with 590 more rows
…
